{
    "actions": {
        "email": true, 
        "kill": true, 
        "log": true
    }, 
    "users_with_bad_email": ["falshan"],
    "excluded_programs": [
        "qsub", "sshd:", "vim"
    ], 
    "excluded_users": [
        "root",
        "delphi"
    ], 
    "filters": {
        "by_command": {
            "MATLAB": true,
            "matlab": true,
            "R": true,
            "mpirun": true,
            "namd2.11_multicore": false
        }, 
        "by_cpu_utilization": {
            "min_cpu_time": 300, 
            "min_pcpu_threshold": 50
        }
    },
    "email_template": "process-scan-email.tmpl",
    "host": "login001",
    "log_file": "/tmp/pscan.log",
    "email_domain": "clemson.edu",
    "from_email": "hpc-admin@clemson.edu",
    "admin_email": "hpc-admin@clemson.edu",
    "search_user_from_ldap": false,
    "ldap_command": "ldapsearch -o ldif-wrap=no -x -D ou=users,ou=clemsonu uid=$user"
}
